login as: pi
pi@raspberrypi-jasonrob's password:
Linux raspberrypi-jasonrob 4.9.41-v7+ #1023 SMP Tue Aug 8 16:00:15 BST 2017 armv7l

The programs included with the Debian GNU/Linux system are free software;
the exact distribution terms for each program are described in the
individual files in /usr/share/doc/*/copyright.

Debian GNU/Linux comes with ABSOLUTELY NO WARRANTY, to the extent
permitted by applicable law.
Last login: Fri Jan 19 02:41:14 2018 from 192.168.1.125
pi@raspberrypi-jasonrob:~ $ cd Lab1
-bash: cd: Lab1: No such file or directory
pi@raspberrypi-jasonrob:~ $ cd src
pi@raspberrypi-jasonrob:~/src $ cd lab1
-bash: cd: lab1: No such file or directory
pi@raspberrypi-jasonrob:~/src $ dir
azure-iot-sdk-python  iot110  iot110-student  iot210  uw_iot_210_student
pi@raspberrypi-jasonrob:~/src $ cd iot210
pi@raspberrypi-jasonrob:~/src/iot210 $ ls
Lab1  README.md
pi@raspberrypi-jasonrob:~/src/iot210 $ cd Lab1
pi@raspberrypi-jasonrob:~/src/iot210/Lab1 $ ls
ipaddr.py           ipv4_udp_client.py           lab1partbsensehatsample.py
ipv4_tcp_client.py  ipv4_udp_server.py
ipv4_tcp_server.py  lab1partbsensehatsample.out
pi@raspberrypi-jasonrob:~/src/iot210/Lab1 $ python ipv4_udp_client.py

ipv4_udp_client message [-n #] [port [ip_addr]]

pi@raspberrypi-jasonrob:~/src/iot210/Lab1 $ python ipv4_udp_client.py "Hello World" -n 10

ipv4_udp_client message [-n #] [port [ip_addr]]

Target Host IP: 127.0.0.1
Target Port: 5000
Sending "Hello World" 10 times ...
pi@raspberrypi-jasonrob:~/src/iot210/Lab1 $
