[3J[H[2JcurrentGame: 0 DictSize: 0
1
2
3
currentGame: 3 DictSize: 3
___
___
___

X__
___
___

X__
O__
___

X__
O__
X__

XO_
O__
X__

XO_
OX_
X__

XO_
OX_
XO_

XOX
OX_
XO_

XOX
OXO
XO_

XOX
OXO
XOX

currentGame: 3 DictSize: 3
currentGame: 3 DictSize: 0
currentGame: 3 DictSize: 0
