login as: pi
pi@192.168.1.142's password:
Linux raspberrypi-jasonrob 4.9.41-v7+ #1023 SMP Tue Aug 8 16:00:15 BST 2017 armv7l

The programs included with the Debian GNU/Linux system are free software;
the exact distribution terms for each program are described in the
individual files in /usr/share/doc/*/copyright.

Debian GNU/Linux comes with ABSOLUTELY NO WARRANTY, to the extent
permitted by applicable law.
Last login: Fri Feb 16 02:34:23 2018 from 192.168.1.115
pi@raspberrypi-jasonrob:~ $ ls
Desktop    Downloads  ipaddr.py  Pictures  python_games  Templates
Documents  Git        Music      Public    src           Videos
pi@raspberrypi-jasonrob:~ $ cd sr
-bash: cd: sr: No such file or directory
pi@raspberrypi-jasonrob:~ $ cls
-bash: cls: command not found
pi@raspberrypi-jasonrob:~ $ cd src
pi@raspberrypi-jasonrob:~/src $ ls
azure-iot-sdk-python  HerokuApp  iot110-student  uw_iot_210_student
dropbox-sdk-python    iot110     iot210          websocket-client
pi@raspberrypi-jasonrob:~/src $ cd uw_iot_210_student/
pi@raspberrypi-jasonrob:~/src/uw_iot_210_student $ ls
images  Lab1  Lab2  Lab3  Lab4  Lab5  README.md
pi@raspberrypi-jasonrob:~/src/uw_iot_210_student $ git pull
Username for 'https://gitlab.com': jerobart@hotmail.com
Password for 'https://jerobart@hotmail.com@gitlab.com':
remote: HTTP Basic: Access denied
fatal: Authentication failed for 'https://gitlab.com/Gislason/uw_iot_210_student.git/'
pi@raspberrypi-jasonrob:~/src/uw_iot_210_student $ git pull
Username for 'https://gitlab.com': jerobart@hotmail.com
Password for 'https://jerobart@hotmail.com@gitlab.com':
remote: HTTP Basic: Access denied
fatal: Authentication failed for 'https://gitlab.com/Gislason/uw_iot_210_student.git/'
pi@raspberrypi-jasonrob:~/src/uw_iot_210_student $ git pull
Username for 'https://gitlab.com': jerobart@hotmail.com
Password for 'https://jerobart@hotmail.com@gitlab.com':
remote: Counting objects: 97, done.
remote: Compressing objects: 100% (70/70), done.
remote: Total 97 (delta 52), reused 47 (delta 21)
Unpacking objects: 100% (97/97), done.
From https://gitlab.com/Gislason/uw_iot_210_student
   9a5987f..30b4ff0  master     -> origin/master
Updating 9a5987f..30b4ff0
Fast-forward
 Lab5/LabPartA.md            |  11 +-
 Lab5/LabPartB.md            |  22 +-
 Lab5/src/dropbox_sha256.py  |   2 +-
 Lab5/src/hsl2hue.py         |   0
 Lab5/src/hue_put.py         |   2 +-
 Lab6/LabPartA.md            | 176 +++++++++++++
 Lab6/LabPartB.md            |  38 +++
 Lab6/LabPartC.md            |  46 ++++
 Lab6/LabPartD.md            |  37 +++
 Lab6/homework.md            |  32 +++
 Lab6/lab.md                 |  27 ++
 Lab6/src/awsIotRootCert     |  28 +++
 Lab6/src/aws_sns_pub.py     |  21 ++
 Lab6/src/aws_sns_sub.py     |  37 +++
 Lab6/src/aws_sqs_pub.py     |  27 ++
 Lab6/src/aws_sqs_sub.py     |  35 +++
 Lab6/src/awsiotpub.py       |  43 ++++
 Lab6/src/awsiotsub.py       |  37 +++
 Lab6/src/config             |   2 +
 Lab6/src/credentials        |   3 +
 Lab6/src/intent             |  13 +
 Lab6/src/iotpolicy.json     |   8 +
 Lab6/src/ses_mail.py        |  65 +++++
 Lab7/LabPartA.md            | 186 ++++++++++++++
 Lab7/LabPartB.md            | 140 +++++++++++
 Lab7/LabPartC.md            |  73 ++++++
 Lab7/docs/quizical.md       | 187 ++++++++++++++
 Lab7/homework.md            |  40 +++
 Lab7/lab.md                 |  26 ++
 Lab7/src/Procfile           |   1 +
 Lab7/src/app.py             | 598 ++++++++++++++++++++++++++++++++++++++++++++
 Lab7/src/ipv4_tcp_client.py |  54 ++++
 Lab7/src/ipv4_tcp_server.py |  66 +++++
 Lab7/src/ipv4_udp_client.py |  52 ++++
 Lab7/src/ipv4_udp_server.py |  28 +++
 Lab7/src/requirements.txt   |   3 +
 Lab7/src/udp_tcp.pcapng     | Bin 0 -> 1816 bytes
 README.md                   |  13 +-
 images/dash.jpg             | Bin 0 -> 122965 bytes
 39 files changed, 2163 insertions(+), 16 deletions(-)
 mode change 100644 => 100755 Lab5/src/hsl2hue.py
 create mode 100644 Lab6/LabPartA.md
 create mode 100644 Lab6/LabPartB.md
 create mode 100644 Lab6/LabPartC.md
 create mode 100644 Lab6/LabPartD.md
 create mode 100644 Lab6/homework.md
 create mode 100644 Lab6/lab.md
 create mode 100644 Lab6/src/awsIotRootCert
 create mode 100644 Lab6/src/aws_sns_pub.py
 create mode 100644 Lab6/src/aws_sns_sub.py
 create mode 100644 Lab6/src/aws_sqs_pub.py
 create mode 100644 Lab6/src/aws_sqs_sub.py
 create mode 100644 Lab6/src/awsiotpub.py
 create mode 100644 Lab6/src/awsiotsub.py
 create mode 100644 Lab6/src/config
 create mode 100644 Lab6/src/credentials
 create mode 100644 Lab6/src/intent
 create mode 100644 Lab6/src/iotpolicy.json
 create mode 100644 Lab6/src/ses_mail.py
 create mode 100644 Lab7/LabPartA.md
 create mode 100644 Lab7/LabPartB.md
 create mode 100644 Lab7/LabPartC.md
 create mode 100644 Lab7/docs/quizical.md
 create mode 100644 Lab7/homework.md
 create mode 100644 Lab7/lab.md
 create mode 100644 Lab7/src/Procfile
 create mode 100644 Lab7/src/app.py
 create mode 100644 Lab7/src/ipv4_tcp_client.py
 create mode 100644 Lab7/src/ipv4_tcp_server.py
 create mode 100644 Lab7/src/ipv4_udp_client.py
 create mode 100644 Lab7/src/ipv4_udp_server.py
 create mode 100644 Lab7/src/requirements.txt
 create mode 100644 Lab7/src/udp_tcp.pcapng
 create mode 100644 images/dash.jpg
pi@raspberrypi-jasonrob:~/src/uw_iot_210_student $ sudo nano /etc/hostname
pi@raspberrypi-jasonrob:~/src/uw_iot_210_student $ hciconfig -h
hciconfig - HCI device configuration utility
Usage:
        hciconfig
        hciconfig [-a] hciX [command ...]
Commands:
        up                      Open and initialize HCI device
        down                    Close HCI device
        reset                   Reset HCI device
        rstat                   Reset statistic counters
        auth                    Enable Authentication
        noauth                  Disable Authentication
        encrypt                 Enable Encryption
        noencrypt               Disable Encryption
        piscan                  Enable Page and Inquiry scan
        noscan                  Disable scan
        iscan                   Enable Inquiry scan
        pscan                   Enable Page scan
        ptype      [type]       Get/Set default packet type
        lm         [mode]       Get/Set default link mode
        lp         [policy]     Get/Set default link policy
        name       [name]       Get/Set local name
        class      [class]      Get/Set class of device
        voice      [voice]      Get/Set voice setting
        iac        [iac]        Get/Set inquiry access code
        inqtpl     [level]      Get/Set inquiry transmit power level
        inqmode    [mode]       Get/Set inquiry mode
        inqdata    [data]       Get/Set inquiry data
        inqtype    [type]       Get/Set inquiry scan type
        inqparms   [win:int]    Get/Set inquiry scan window and interval
        pageparms  [win:int]    Get/Set page scan window and interval
        pageto     [to]         Get/Set page timeout
        afhmode    [mode]       Get/Set AFH mode
        sspmode    [mode]       Get/Set Simple Pairing Mode
        aclmtu     <mtu:pkt>    Set ACL MTU and number of packets
        scomtu     <mtu:pkt>    Set SCO MTU and number of packets
        delkey     <bdaddr>     Delete link key from the device
        oobdata                 Get local OOB data
        commands                Display supported commands
        features                Display device features
        version                 Display version information
        revision                Display revision information
        block      <bdaddr>     Add a device to the blacklist
        unblock    <bdaddr>     Remove a device from the blacklist
        lerandaddr <bdaddr>     Set LE Random Address
        leadv      [type]       Enable LE advertising
                        0 - Connectable undirected advertising (default)
                        3 - Non connectable undirected advertising
        noleadv                 Disable LE advertising
        lestates                Display the supported LE states
pi@raspberrypi-jasonrob:~/src/uw_iot_210_student $ sudo hciconfig hci0 up
pi@raspberrypi-jasonrob:~/src/uw_iot_210_student $ sudo hciconfig hci0 leadv 3
pi@raspberrypi-jasonrob:~/src/uw_iot_210_student $ sudo hcitool -i hci0 cmd 0x08 0x0008 15 02 01 06 03 03 aa fe 0d 16 aa fe 10 00 03 70 63 65 2e 75 77 02 00 00 00 00 00 00 00 00 00 00
< HCI Command: ogf 0x08, ocf 0x0008, plen 32
  15 02 01 06 03 03 AA FE 0D 16 AA FE 10 00 03 70 63 65 2E 75
  77 02 00 00 00 00 00 00 00 00 00 00
> HCI Event: 0x0e plen 4
  01 08 20 00
pi@raspberrypi-jasonrob:~/src/uw_iot_210_student $ cd ..
pi@raspberrypi-jasonrob:~/src $ cd uw210
-bash: cd: uw210: No such file or directory
pi@raspberrypi-jasonrob:~/src $ ls
azure-iot-sdk-python  HerokuApp  iot110-student  uw_iot_210_student
dropbox-sdk-python    iot110     iot210          websocket-client
pi@raspberrypi-jasonrob:~/src $ cd iot210
pi@raspberrypi-jasonrob:~/src/iot210 $ cd Lab7
pi@raspberrypi-jasonrob:~/src/iot210/Lab7 $ echo "pce.uw.edu" >x.txt
pi@raspberrypi-jasonrob:~/src/iot210/Lab7 $ hexdump -C x.txt
00000000  70 63 65 2e 75 77 2e 65  64 75 0a                 |pce.uw.edu.|
0000000b
pi@raspberrypi-jasonrob:~/src/iot210/Lab7 $ vi azure.txt
pi@raspberrypi-jasonrob:~/src/iot210/Lab7 $ cat azure.txt
https://tinyurl.com/y9g9tebv
pi@raspberrypi-jasonrob:~/src/iot210/Lab7 $ hexdump azure.txt
0000000 7468 7074 3a73 2f2f 6974 796e 7275 2e6c
0000010 6f63 2f6d 3979 3967 6574 7662 000a
000001d
pi@raspberrypi-jasonrob:~/src/iot210/Lab7 $ hexdump -C azure.txt
00000000  68 74 74 70 73 3a 2f 2f  74 69 6e 79 75 72 6c 2e  |https://tinyurl.|
00000010  63 6f 6d 2f 79 39 67 39  74 65 62 76 0a           |com/y9g9tebv.|
0000001d
pi@raspberrypi-jasonrob:~/src/iot210/Lab7 $ ls azure.txt
azure.txt
pi@raspberrypi-jasonrob:~/src/iot210/Lab7 $ ls -l azure.txt
-rw-r--r-- 1 pi pi 29 Feb 16 04:06 azure.txt
pi@raspberrypi-jasonrob:~/src/iot210/Lab7 $ ls -l azure.txt^C
pi@raspberrypi-jasonrob:~/src/iot210/Lab7 $ hexdump --help
hexdump: invalid option -- '-'
usage: hexdump [-bcCdovx] [-e fmt] [-f fmt_file] [-n length]
               [-s skip] [file ...]
       hd      [-bcdovx]  [-e fmt] [-f fmt_file] [-n length]
               [-s skip] [file ...]
pi@raspberrypi-jasonrob:~/src/iot210/Lab7 $ hexdump -bC azure.txt
0000000 150 164 164 160 163 072 057 057 164 151 156 171 165 162 154 056
00000000  68 74 74 70 73 3a 2f 2f  74 69 6e 79 75 72 6c 2e  |https://tinyurl.|
0000010 143 157 155 057 171 071 147 071 164 145 142 166 012
00000010  63 6f 6d 2f 79 39 67 39  74 65 62 76 0a           |com/y9g9tebv.|
0000001d
pi@raspberrypi-jasonrob:~/src/iot210/Lab7 $ hexdump -C azure.txt
00000000  68 74 74 70 73 3a 2f 2f  74 69 6e 79 75 72 6c 2e  |https://tinyurl.|
00000010  63 6f 6d 2f 79 39 67 39  74 65 62 76 0a           |com/y9g9tebv.|
0000001d
pi@raspberrypi-jasonrob:~/src/iot210/Lab7 $ sudo hcitool -i hci0 cmd 0x08 0x0008 1e 02 01 06 03 03 aa fe 16 16 aa fe 10 00 03 74 69 6e 79 75 72 6c 00 79 39 67 39 74 65 62 76 00
< HCI Command: ogf 0x08, ocf 0x0008, plen 32
  1E 02 01 06 03 03 AA FE 16 16 AA FE 10 00 03 74 69 6E 79 75
  72 6C 00 79 39 67 39 74 65 62 76 00
> HCI Event: 0x0e plen 4
  01 08 20 00
pi@raspberrypi-jasonrob:~/src/iot210/Lab7 $ sudo hciconfig hci0 down
pi@raspberrypi-jasonrob:~/src/iot210/Lab7 $ sudo hciconfig hci0 up
pi@raspberrypi-jasonrob:~/src/iot210/Lab7 $ sudo hciconfig hci0 leadv 3         pi@raspberrypi-jasonrob:~/src/iot210/Lab7 $ sudo hcitool -i hci0 cmd 0x08 0x0008 1e 02 01 06 03 03 aa fe 16 16 aa fe 10 00 03 74 69 6e 79 75 72 6c 00 79 39 67 39 74 65 62 76 00
< HCI Command: ogf 0x08, ocf 0x0008, plen 32
  1E 02 01 06 03 03 AA FE 16 16 AA FE 10 00 03 74 69 6E 79 75
  72 6C 00 79 39 67 39 74 65 62 76 00
> HCI Event: 0x0e plen 4
  01 08 20 00
pi@raspberrypi-jasonrob:~/src/iot210/Lab7 $ sudo hciconfig hci0 down
pi@raspberrypi-jasonrob:~/src/iot210/Lab7 $

